Assignment2/cpu.vcd
$date
	Fri Feb  6 01:49:08 2026
$end
$version
	Icarus Verilog
$end
$timescale
	1s
$end
$scope module cpu_tb $end
$var reg 1 ! clk $end
$var reg 1 " reset $end
$scope module dut $end
$var wire 1 ! clk $end
$var wire 8 # reg_r1 [7:0] $end
$var wire 8 $ reg_r2 [7:0] $end
$var wire 1 " reset $end
$var wire 1 % wb_sel_mem $end
$var wire 1 & s_idx $end
$var wire 1 ' reg_write $end
$var wire 1 ( pc_offset_is_jmp $end
$var wire 1 ) pc_inc $end
$var wire 1 * pc_add_offset $end
$var wire 4 + opcode [3:0] $end
$var wire 8 , off_jmp [7:0] $end
$var wire 8 - off_beq [7:0] $end
$var wire 1 . mem_write $end
$var wire 8 / mem_data_out [7:0] $end
$var wire 1 0 mem_addr_is_pc $end
$var wire 1 1 ir_write $end
$var wire 8 2 imm_ext [7:0] $end
$var wire 1 3 halted $end
$var wire 1 4 ds_idx $end
$var wire 1 5 alu_zero $end
$var wire 2 6 alu_src_b_sel [1:0] $end
$var wire 2 7 alu_src_a_sel [1:0] $end
$var wire 8 8 alu_result [7:0] $end
$var wire 2 9 alu_func [1:0] $end
$var reg 8 : IR [7:0] $end
$var reg 8 ; PC [7:0] $end
$var reg 8 < alu_in_a [7:0] $end
$var reg 8 = alu_in_b [7:0] $end
$var reg 8 > mem_addr [7:0] $end
$var reg 8 ? wb_data [7:0] $end
$scope module cpu_alu $end
$var wire 8 @ a [7:0] $end
$var wire 8 A b [7:0] $end
$var wire 2 B func [1:0] $end
$var reg 8 C result [7:0] $end
$var reg 1 5 zero $end
$upscope $end
$scope module cu $end
$var wire 1 5 alu_zero $end
$var wire 1 ! clk $end
$var wire 4 D opcode [3:0] $end
$var wire 1 " reset $end
$var reg 2 E alu_func [1:0] $end
$var reg 2 F alu_src_a_sel [1:0] $end
$var reg 2 G alu_src_b_sel [1:0] $end
$var reg 3 H curr_state [2:0] $end
$var reg 1 3 halted $end
$var reg 1 1 ir_write $end
$var reg 1 0 mem_addr_is_pc $end
$var reg 1 . mem_write $end
$var reg 3 I next_state [2:0] $end
$var reg 1 * pc_add_offset $end
$var reg 1 ) pc_inc $end
$var reg 1 ( pc_offset_is_jmp $end
$var reg 1 ' reg_write $end
$var reg 1 % wb_sel_mem $end
$upscope $end
$scope module mem_inst $end
$var wire 8 J addr [7:0] $end
$var wire 1 ! clk $end
$var wire 8 K data_in [7:0] $end
$var wire 8 L data_out [7:0] $end
$var wire 1 . write_en $end
$scope begin $ivl_for_loop0 $end
$var integer 32 M i [31:0] $end
$upscope $end
$upscope $end
$upscope $end
$upscope $end
$enddefinitions $end
$comment Show the parameter values. $end
$dumpall
$end
#0
$dumpvars
b100000000 M
b0 L
b0 K
b0 J
b1 I
b0 H
b0 G
b0 F
b11 E
b0 D
b0 C
b11 B
b0 A
b0 @
b0 ?
b0 >
b0 =
b0 <
b0 ;
b0 :
b11 9
b0 8
b0 7
b0 6
15
04
03
b0 2
11
10
b0 /
0.
b0 -
b0 ,
b0 +
0*
1)
0(
0'
0&
0%
b0 $
b0 #
1"
0!
$end
#5
1!
#10
0!
0"
#15
b101 ?
05
b101 8
b101 C
b101 =
b101 A
1'
b1 6
b1 G
00
0)
01
b0 I
b0 >
b0 J
b11 +
b11 D
1&
b101 2
b101 -
b101 ,
b1 H
b1 ;
b110101 :
1!
b110101 /
b110101 L
#20
0!
#25
b101 8
b101 C
b111111 /
b111111 L
b1 >
b1 J
b0 =
b0 A
b101 <
b101 @
1)
11
10
b0 6
b0 G
0'
b1 I
b101 #
b101 K
b0 H
1!
#30
0!
#35
b111 ?
b111 8
b111 C
b0 <
b0 @
b111 =
b111 A
1'
b1 6
b1 G
00
0)
01
b0 I
b110101 /
b110101 L
b0 >
b0 J
b0 #
b0 K
14
b111 2
b11111111 -
b11111111 ,
b1 H
b10 ;
b111111 :
1!
#40
0!
#45
b1110 ?
b1110 8
b1110 C
b111 <
b111 @
b10100 /
b10100 L
b10 >
b10 J
1)
11
10
b0 6
b0 G
0'
b1 I
b111 #
b111 K
b111 $
b0 H
1!
#50
0!
#55
b1100 ?
b1100 8
b1100 C
b101 <
b101 @
1'
00
0)
01
b0 I
b111111 /
b111111 L
b111 >
b111 J
b1 +
b1 D
b101 #
b101 K
04
b100 2
b100 -
b100 ,
b1 H
b11 ;
b10100 :
1!
#60
0!
#65
b10011 ?
b10011 8
b10011 C
b1101000 /
b1101000 L
b11 >
b11 J
b1100 <
b1100 @
1)
11
10
0'
b1 I
b1100 #
b1100 K
b0 H
1!
#70
0!
#75
b10011 8
b10011 C
b1100 ?
b111 <
b111 @
b1100 =
b1100 A
1%
1'
00
0)
01
b0 I
b1100 /
b1100 L
b1100 >
b1100 J
b110 +
b110 D
b111 #
b111 K
14
b1100 $
0&
b0 2
b11111000 -
b11111000 ,
b1 H
b100 ;
b1101000 :
1!
#80
0!
#85
b11000 8
b11000 C
b10000001 /
b10000001 L
b100 >
b100 J
b11000 ?
b1100 <
b1100 @
1)
11
10
0%
0'
b1 I
b1100 #
b1100 K
b0 H
1!
#90
0!
#95
1*
b0 ?
15
b0 8
b0 C
b11 6
b11 G
b1 7
b1 F
b10 9
b10 B
b10 E
00
0)
01
b0 I
b1100 /
b1100 L
b1100 >
b1100 J
b1000 +
b1000 D
04
b1 2
b1 -
b1 ,
b1 H
b101 ;
b10000001 :
1!
#100
0!
#105
b11000 ?
05
b11000 8
b11000 C
b100000 /
b100000 L
b110 >
b110 J
1)
11
10
b11 9
b11 B
b11 E
b0 6
b0 G
b0 7
b0 F
0*
b1 I
b110 ;
b0 H
1!
#110
0!
#115
00
0)
01
b10 I
b1100 /
b1100 L
b1100 >
b1100 J
b10 +
b10 D
b0 2
b0 -
b0 ,
b1 H
b111 ;
b100000 :
1!
#120
0!
#125
1'
b10 6
b10 G
b0 I
b10 H
1!
#130
0!
#135
b110000 ?
b110000 8
b110000 C
1)
11
10
b0 6
b0 G
0'
b1 I
b11000 <
b11000 @
b11000 =
b11000 A
b111111 /
b111111 L
b111 >
b111 J
b0 H
b11000 #
b11000 K
b11000 $
1!
#140
0!
#145
b10011 ?
b10011 8
b10011 C
1'
b1 6
b1 G
b1100 <
b1100 @
b111 =
b111 A
b1100 /
b1100 L
b1100 >
b1100 J
b11 +
b11 D
b1100 #
b1100 K
14
b1100 $
1&
b111 2
b11111111 -
b11111111 ,
00
0)
01
b0 I
b1000 ;
b111111 :
b1 H
1!
#150
0!
#155
b100110 ?
b10011 =
b10011 A
b100110 8
b100110 C
1)
11
10
b0 6
b0 G
0'
b1 I
b10011 <
b10011 @
b1000100 /
b1000100 L
b1000 >
b1000 J
b0 H
b10011 #
b10011 K
b10011 $
1!
#160
0!
#165
b101 ?
b101 8
b101 C
b10 9
b10 B
b10 E
b11000 <
b11000 @
b10011 =
b10011 A
b0 /
b0 L
b10011 >
b10011 J
b100 +
b100 D
b11000 #
b11000 K
04
b100 2
b100 -
b100 ,
1'
b0 6
b0 G
00
0)
01
b0 I
b1001 ;
b1000100 :
b1 H
1!
#170
0!
#175
b11000 ?
b1110100 /
b1110100 L
b1001 >
b1001 J
b11000 8
b11000 C
1)
11
10
b11 9
b11 B
b11 E
0'
b1 I
b101 <
b101 @
b0 H
b101 #
b101 K
1!
#180
0!
#185
b11000 ?
1.
b11000 8
b11000 C
b0 /
b0 L
b10011 >
b10011 J
b111 +
b111 D
0'
b11 9
b11 B
b11 E
00
0)
01
b0 I
b1010 ;
b1110100 :
b1 H
1!
#190
0!
#195
b1010 >
b1010 J
1)
11
10
0.
b1 I
b0 H
b11110000 /
b11110000 L
1!
#200
0!
#205
b1010 ?
b1010 8
b1010 C
13
b101 =
b101 A
b11110000 /
b11110000 L
b101 >
b101 J
b1111 +
b1111 D
b101 $
0&
b0 2
b0 -
b0 ,
0.
00
0)
01
b11 I
b1011 ;
b11110000 :
b1 H
1!
#210
0!
#215
13
b11 H
1!
