Assignment2/cpu_extra.vcd
$date
	Fri Feb  6 19:40:29 2026
$end
$version
	Icarus Verilog
$end
$timescale
	1s
$end
$scope module cpu_tb $end
$var reg 1 ! clk $end
$var reg 1 " reset $end
$scope function encA $end
$upscope $end
$scope function encB $end
$upscope $end
$scope function encC $end
$upscope $end
$scope module dut $end
$var wire 1 ! clk $end
$var wire 8 # reg_r1 [7:0] $end
$var wire 8 $ reg_r2 [7:0] $end
$var wire 1 " reset $end
$var wire 1 % wb_sel_mem $end
$var wire 1 & s_idx $end
$var wire 1 ' reg_write $end
$var wire 1 ( pc_offset_is_jmp $end
$var wire 1 ) pc_inc $end
$var wire 1 * pc_add_offset $end
$var wire 4 + opcode [3:0] $end
$var wire 8 , off_jmp [7:0] $end
$var wire 8 - off_beq [7:0] $end
$var wire 1 . mem_write $end
$var wire 8 / mem_data_out [7:0] $end
$var wire 1 0 mem_addr_is_pc $end
$var wire 1 1 ir_write $end
$var wire 8 2 imm_ext [7:0] $end
$var wire 1 3 halted $end
$var wire 1 4 ds_idx $end
$var wire 1 5 alu_zero $end
$var wire 2 6 alu_src_b_sel [1:0] $end
$var wire 2 7 alu_src_a_sel [1:0] $end
$var wire 8 8 alu_result [7:0] $end
$var wire 2 9 alu_func [1:0] $end
$var reg 8 : IR [7:0] $end
$var reg 8 ; PC [7:0] $end
$var reg 8 < alu_in_a [7:0] $end
$var reg 8 = alu_in_b [7:0] $end
$var reg 8 > mem_addr [7:0] $end
$var reg 8 ? wb_data [7:0] $end
$scope module cpu_alu $end
$var wire 8 @ a [7:0] $end
$var wire 8 A b [7:0] $end
$var wire 2 B func [1:0] $end
$var reg 8 C result [7:0] $end
$var reg 1 5 zero $end
$upscope $end
$scope module cu $end
$var wire 1 5 alu_zero $end
$var wire 1 ! clk $end
$var wire 4 D opcode [3:0] $end
$var wire 1 " reset $end
$var reg 2 E alu_func [1:0] $end
$var reg 2 F alu_src_a_sel [1:0] $end
$var reg 2 G alu_src_b_sel [1:0] $end
$var reg 3 H curr_state [2:0] $end
$var reg 1 3 halted $end
$var reg 1 1 ir_write $end
$var reg 1 0 mem_addr_is_pc $end
$var reg 1 . mem_write $end
$var reg 3 I next_state [2:0] $end
$var reg 1 * pc_add_offset $end
$var reg 1 ) pc_inc $end
$var reg 1 ( pc_offset_is_jmp $end
$var reg 1 ' reg_write $end
$var reg 1 % wb_sel_mem $end
$upscope $end
$scope module mem_inst $end
$var wire 8 J addr [7:0] $end
$var wire 1 ! clk $end
$var wire 8 K data_in [7:0] $end
$var wire 8 L data_out [7:0] $end
$var wire 1 . write_en $end
$scope begin $ivl_for_loop0 $end
$var integer 32 M i [31:0] $end
$upscope $end
$upscope $end
$upscope $end
$scope task check_mem $end
$upscope $end
$scope task check_reg $end
$upscope $end
$scope task clear_mem $end
$upscope $end
$scope task load_instr $end
$upscope $end
$scope task reset_cpu $end
$upscope $end
$scope task run_until_halt $end
$upscope $end
$upscope $end
$enddefinitions $end
$comment Show the parameter values. $end
$dumpall
$end
#0
$dumpvars
b100000000 M
b110101 L
b0 K
b0 J
b1 I
b0 H
b0 G
b0 F
b11 E
b0 D
b0 C
b11 B
b0 A
b0 @
b0 ?
b0 >
b0 =
b0 <
b0 ;
b0 :
b11 9
b0 8
b0 7
b0 6
15
04
03
b0 2
11
10
b110101 /
0.
b0 -
b0 ,
b0 +
0*
1)
0(
0'
0&
0%
b0 $
b0 #
1"
0!
$end
#5
1!
#10
0!
#12
0"
#15
b101 ?
05
b101 8
b101 C
b101 =
b101 A
1'
b1 6
b1 G
00
0)
01
b0 I
b110101 /
b110101 L
b0 >
b0 J
b11 +
b11 D
1&
b101 2
b101 -
b101 ,
b1 H
b1 ;
b110101 :
1!
#20
0!
#25
b101 8
b101 C
b111111 /
b111111 L
b1 >
b1 J
b0 =
b0 A
b101 <
b101 @
1)
11
10
b0 6
b0 G
0'
b1 I
b101 #
b101 K
b0 H
1!
#30
0!
#35
b111 ?
b111 8
b111 C
b0 <
b0 @
b111 =
b111 A
1'
b1 6
b1 G
00
0)
01
b0 I
b110101 /
b110101 L
b0 >
b0 J
b0 #
b0 K
14
b111 2
b11111111 -
b11111111 ,
b1 H
b10 ;
b111111 :
1!
#40
0!
#45
b1110 ?
b1110 8
b1110 C
b111 <
b111 @
b10100 /
b10100 L
b10 >
b10 J
1)
11
10
b0 6
b0 G
0'
b1 I
b111 #
b111 K
b111 $
b0 H
1!
#50
0!
#55
b1100 ?
b1100 8
b1100 C
b101 <
b101 @
1'
00
0)
01
b0 I
b111111 /
b111111 L
b111 >
b111 J
b1 +
b1 D
b101 #
b101 K
04
b100 2
b100 -
b100 ,
b1 H
b11 ;
b10100 :
1!
#60
0!
#65
b10011 ?
b10011 8
b10011 C
b1101000 /
b1101000 L
b11 >
b11 J
b1100 <
b1100 @
1)
11
10
0'
b1 I
b1100 #
b1100 K
b0 H
1!
#70
0!
#75
b10011 8
b10011 C
b1100 ?
b111 <
b111 @
b1100 =
b1100 A
1%
1'
00
0)
01
b0 I
b1100 /
b1100 L
b1100 >
b1100 J
b110 +
b110 D
b111 #
b111 K
14
b1100 $
0&
b0 2
b11111000 -
b11111000 ,
b1 H
b100 ;
b1101000 :
1!
#80
0!
#85
b11000 8
b11000 C
b10000001 /
b10000001 L
b100 >
b100 J
b11000 ?
b1100 <
b1100 @
1)
11
10
0%
0'
b1 I
b1100 #
b1100 K
b0 H
1!
#90
0!
#95
1*
b0 ?
15
b0 8
b0 C
b11 6
b11 G
b1 7
b1 F
b10 9
b10 B
b10 E
00
0)
01
b0 I
b1100 /
b1100 L
b1100 >
b1100 J
b1000 +
b1000 D
04
b1 2
b1 -
b1 ,
b1 H
b101 ;
b10000001 :
1!
#100
0!
#105
b11000 ?
05
b11000 8
b11000 C
b100000 /
b100000 L
b110 >
b110 J
1)
11
10
b11 9
b11 B
b11 E
b0 6
b0 G
b0 7
b0 F
0*
b1 I
b110 ;
b0 H
1!
#110
0!
#115
00
0)
01
b10 I
b1100 /
b1100 L
b1100 >
b1100 J
b10 +
b10 D
b0 2
b0 -
b0 ,
b1 H
b111 ;
b100000 :
1!
#120
0!
#125
1'
b10 6
b10 G
b0 I
b10 H
1!
#130
0!
#135
b110000 ?
b110000 8
b110000 C
1)
11
10
b0 6
b0 G
0'
b1 I
b11000 <
b11000 @
b11000 =
b11000 A
b111111 /
b111111 L
b111 >
b111 J
b0 H
b11000 #
b11000 K
b11000 $
1!
#140
0!
#145
b10011 ?
b10011 8
b10011 C
1'
b1 6
b1 G
b1100 <
b1100 @
b111 =
b111 A
b1100 /
b1100 L
b1100 >
b1100 J
b11 +
b11 D
b1100 #
b1100 K
14
b1100 $
1&
b111 2
b11111111 -
b11111111 ,
00
0)
01
b0 I
b1000 ;
b111111 :
b1 H
1!
#150
0!
#155
b100110 ?
b10011 =
b10011 A
b100110 8
b100110 C
1)
11
10
b0 6
b0 G
0'
b1 I
b10011 <
b10011 @
b1000100 /
b1000100 L
b1000 >
b1000 J
b0 H
b10011 #
b10011 K
b10011 $
1!
#160
0!
#165
b101 ?
b101 8
b101 C
b10 9
b10 B
b10 E
b11000 <
b11000 @
b10011 =
b10011 A
b0 /
b0 L
b10011 >
b10011 J
b100 +
b100 D
b11000 #
b11000 K
04
b100 2
b100 -
b100 ,
1'
b0 6
b0 G
00
0)
01
b0 I
b1001 ;
b1000100 :
b1 H
1!
#170
0!
#175
b11000 ?
b1110100 /
b1110100 L
b1001 >
b1001 J
b11000 8
b11000 C
1)
11
10
b11 9
b11 B
b11 E
0'
b1 I
b101 <
b101 @
b0 H
b101 #
b101 K
1!
#180
0!
#185
b11000 ?
1.
b11000 8
b11000 C
b0 /
b0 L
b10011 >
b10011 J
b111 +
b111 D
0'
b11 9
b11 B
b11 E
00
0)
01
b0 I
b1010 ;
b1110100 :
b1 H
1!
#190
0!
#195
b1010 >
b1010 J
1)
11
10
0.
b1 I
b0 H
b11110000 /
b11110000 L
1!
#200
0!
#205
b1010 ?
b1010 8
b1010 C
13
b101 =
b101 A
b11110000 /
b11110000 L
b101 >
b101 J
b1111 +
b1111 D
b101 $
0&
b0 2
b0 -
b0 ,
0.
00
0)
01
b11 I
b1011 ;
b11110000 :
b1 H
1!
#210
0!
#215
13
b11 H
1!
#220
0!
#225
b0 ?
15
b0 8
b0 C
b0 +
b0 D
b0 <
b0 @
b0 =
b0 A
b0 >
b0 J
1)
11
10
03
b1 I
b0 :
b0 ;
b0 #
b0 K
b0 $
b0 H
1"
b0 /
b0 L
1!
#230
0!
#235
1!
#237
0"
#240
0!
#245
b1 =
b1 A
b1 ?
b1 6
b1 G
05
b1 8
b1 C
b11 +
b11 D
b1 2
b1 -
b1 ,
1'
b11 9
b11 B
b11 E
00
0)
01
b0 I
b1 ;
b110001 :
b1 H
1!
b110001 /
b110001 L
#250
0!
#255
b10 ?
b10 8
b10 C
1)
11
10
b0 6
b0 G
0'
b1 I
b1 <
b1 @
b111010 /
b111010 L
b1 >
b1 J
b0 H
b1 #
b1 K
b1 $
1!
#260
0!
#265
b10 8
b10 C
b0 <
b0 @
b10 =
b10 A
b111010 /
b111010 L
b1 >
b1 J
b0 #
b0 K
14
b10 2
b11111010 -
b11111010 ,
1'
b1 6
b1 G
00
0)
01
b0 I
b10 ;
b111010 :
b1 H
1!
#270
0!
#275
b11 ?
b10000001 /
b10000001 L
b10 >
b10 J
b1 =
b1 A
b11 8
b11 C
1)
11
10
b0 6
b0 G
0'
b1 I
b10 <
b10 @
b0 H
b10 #
b10 K
1!
#280
0!
#285
0*
b11111111 ?
b10 =
b10 A
05
b11111111 8
b11111111 C
b1 7
b1 F
b10 9
b10 B
b10 E
b1 <
b1 @
b111010 /
b111010 L
b1 >
b1 J
b1000 +
b1000 D
b1 #
b1 K
04
b1 2
b1 -
b1 ,
0'
b11 6
b11 G
00
0)
01
b0 I
b11 ;
b10000001 :
b1 H
1!
#290
0!
#295
b10 ?
b110001 /
b110001 L
b11 >
b11 J
b10 8
b10 C
b1 =
b1 A
1)
11
10
b11 9
b11 B
b11 E
b0 6
b0 G
b0 7
b0 F
b1 I
b0 H
1!
#300
0!
#305
b10 ?
1'
b1 =
b1 A
05
b10 8
b10 C
b111010 /
b111010 L
b1 >
b1 J
b11 +
b11 D
b1 6
b1 G
b0 7
b0 F
b11 9
b11 B
b11 E
00
0)
01
b0 I
b100 ;
b110001 :
b1 H
1!
#310
0!
#315
b100 ?
b10 =
b10 A
b100 8
b100 C
1)
11
10
b0 6
b0 G
0'
b1 I
b10 <
b10 @
b11110000 /
b11110000 L
b100 >
b100 J
b0 H
b10 #
b10 K
b10 $
1!
#320
0!
#325
b100 ?
b100 8
b100 C
13
b10 =
b10 A
b10000001 /
b10000001 L
b10 >
b10 J
b1111 +
b1111 D
b0 2
b0 -
b0 ,
0'
b0 6
b0 G
00
0)
01
b11 I
b101 ;
b11110000 :
b1 H
1!
#330
0!
#335
13
b11 H
1!
#340
0!
#345
b0 ?
15
b0 8
b0 C
b0 +
b0 D
b0 <
b0 @
b0 =
b0 A
b0 >
b0 J
1)
11
10
03
b1 I
b0 :
b0 ;
b0 #
b0 K
b0 $
b0 H
1"
b0 /
b0 L
1!
#350
0!
#355
1!
#357
0"
#360
0!
#365
b0 ?
b1 6
b1 G
15
b0 8
b0 C
b11 +
b11 D
1'
b11 9
b11 B
b11 E
00
0)
01
b0 I
b1 ;
b110000 :
b1 H
1!
b110000 /
b110000 L
#370
0!
#375
b111000 /
b111000 L
b1 >
b1 J
1)
11
10
b0 6
b0 G
0'
b1 I
b0 H
1!
#380
0!
#385
b110000 /
b110000 L
b0 >
b0 J
14
b11111000 -
b11111000 ,
1'
b1 6
b1 G
00
0)
01
b0 I
b10 ;
b111000 :
b1 H
1!
#390
0!
#395
b10010001 /
b10010001 L
b10 >
b10 J
1)
11
10
b0 6
b0 G
0'
b1 I
b0 H
1!
#400
0!
#405
b0 ?
15
b0 8
b0 C
1(
1*
b0 =
b0 A
b110000 /
b110000 L
b0 >
b0 J
b1001 +
b1001 D
04
b1 2
b1 -
b1 ,
0'
b0 6
b0 G
00
0)
01
b0 I
b11 ;
b10010001 :
b1 H
1!
#410
0!
#415
b10001110 /
b10001110 L
b100 >
b100 J
1)
11
10
0(
0*
b1 I
b0 H
b100 ;
1!
#420
0!
#425
b11 6
b11 G
b1 7
b1 F
b10 9
b10 B
b10 E
b110000 /
b110000 L
b0 >
b0 J
b1000 +
b1000 D
14
1&
b110 2
b11111110 -
b11111110 ,
0(
1*
00
0)
01
b0 I
b101 ;
b10001110 :
b1 H
1!
#430
0!
#435
b11110000 /
b11110000 L
b11 >
b11 J
1)
11
10
b11 9
b11 B
b11 E
b0 6
b0 G
b0 7
b0 F
0*
b1 I
b0 H
b11 ;
1!
#440
0!
#445
13
b110000 /
b110000 L
b0 >
b0 J
b1111 +
b1111 D
04
0&
b0 2
b0 -
b0 ,
0*
b0 6
b0 G
b0 7
b0 F
b11 9
b11 B
b11 E
00
0)
01
b11 I
b100 ;
b11110000 :
b1 H
1!
#450
0!
#455
13
b11 H
1!
#460
0!
#465
b0 +
b0 D
1)
11
10
03
b1 I
b0 :
b0 ;
b0 H
1"
b0 /
b0 L
1!
#470
0!
#475
1!
#477
0"
#480
0!
#485
b1 =
b1 A
b1 ?
b1 6
b1 G
05
b1 8
b1 C
b11 +
b11 D
b1 2
b1 -
b1 ,
1'
b11 9
b11 B
b11 E
00
0)
01
b0 I
b1 ;
b110001 :
b1 H
1!
b110001 /
b110001 L
#490
0!
#495
b10 ?
b10 8
b10 C
1)
11
10
b0 6
b0 G
0'
b1 I
b1 <
b1 @
b10010001 /
b10010001 L
b1 >
b1 J
b0 H
b1 #
b1 K
b1 $
1!
#500
0!
#505
1(
1*
b10010001 /
b10010001 L
b1 >
b1 J
b1001 +
b1001 D
0'
b0 6
b0 G
00
0)
01
b0 I
b10 ;
b10010001 :
b1 H
1!
#510
0!
#515
1)
11
10
0(
0*
b1 I
b11110000 /
b11110000 L
b11 >
b11 J
b0 H
b11 ;
1!
#520
0!
#525
13
b10010001 /
b10010001 L
b1 >
b1 J
b1111 +
b1111 D
b0 2
b0 -
b0 ,
0(
0*
00
0)
01
b11 I
b100 ;
b11110000 :
b1 H
1!
#530
0!
#535
13
b11 H
1!
#540
0!
#545
b0 ?
15
b0 8
b0 C
b0 +
b0 D
b0 <
b0 @
b0 =
b0 A
b0 >
b0 J
1)
11
10
03
b1 I
b0 :
b0 ;
b0 #
b0 K
b0 $
b0 H
1"
b0 /
b0 L
1!
#550
0!
#555
1!
#557
0"
#560
0!
#565
b11 =
b11 A
b11 ?
b1 6
b1 G
05
b11 8
b11 C
b11 +
b11 D
b11 2
b11 -
b11 ,
1'
b11 9
b11 B
b11 E
00
0)
01
b0 I
b1 ;
b110011 :
b1 H
1!
b110011 /
b110011 L
#570
0!
#575
b110 ?
b110 8
b110 C
1)
11
10
b0 6
b0 G
0'
b1 I
b11 <
b11 @
b111101 /
b111101 L
b1 >
b1 J
b0 H
b11 #
b11 K
b11 $
1!
#580
0!
#585
b101 ?
b101 8
b101 C
b0 <
b0 @
b101 =
b101 A
b110011 /
b110011 L
b0 >
b0 J
b0 #
b0 K
14
b0 $
1&
b101 2
b11111101 -
b11111101 ,
1'
b1 6
b1 G
00
0)
01
b0 I
b10 ;
b111101 :
b1 H
1!
#590
0!
#595
b1010 ?
b1010 8
b1010 C
1)
11
10
b0 6
b0 G
0'
b1 I
b101 <
b101 @
b100 /
b100 L
b10 >
b10 J
b0 H
b101 #
b101 K
b101 $
1!
#600
0!
#605
b11111110 ?
b11111110 8
b11111110 C
b0 9
b0 B
b0 E
b11 <
b11 @
b101 =
b101 A
b10100 /
b10100 L
b101 >
b101 J
b0 +
b0 D
b11 #
b11 K
04
b100 2
b100 -
b100 ,
1'
b0 6
b0 G
00
0)
01
b0 I
b11 ;
b100 :
b1 H
1!
#610
0!
#615
b11 ?
b1011000 /
b1011000 L
b11 >
b11 J
b11 8
b11 C
1)
11
10
b11 9
b11 B
b11 E
0'
b1 I
b11111110 <
b11111110 @
b0 H
b11111110 #
b11111110 K
1!
#620
0!
#625
b11110110 ?
b101 <
b101 @
b11111110 =
b11111110 A
b11110110 8
b11110110 C
b0 /
b0 L
b11111110 >
b11111110 J
b101 +
b101 D
b101 #
b101 K
14
b11111110 $
0&
b0 2
b11111000 -
b11111000 ,
1'
b1 9
b1 B
b1 E
00
0)
01
b0 I
b100 ;
b1011000 :
b1 H
1!
#630
0!
#635
b11110100 ?
b1001000 /
b1001000 L
b100 >
b100 J
b11110100 8
b11110100 C
1)
11
10
b11 9
b11 B
b11 E
0'
b1 I
b11110110 <
b11110110 @
b0 H
b11110110 #
b11110110 K
1!
#640
0!
#645
b11111000 ?
b11111000 8
b11111000 C
b0 /
b0 L
b11111110 >
b11111110 J
b100 +
b100 D
1'
b10 9
b10 B
b10 E
00
0)
01
b0 I
b101 ;
b1001000 :
b1 H
1!
#650
0!
#655
b11110110 ?
b10100 /
b10100 L
b101 >
b101 J
b11110110 8
b11110110 C
1)
11
10
b11 9
b11 B
b11 E
0'
b1 I
b11111000 <
b11111000 @
b0 H
b11111000 #
b11111000 K
1!
#660
0!
#665
b11110110 ?
b11111110 <
b11111110 @
b11111000 =
b11111000 A
b11110110 8
b11110110 C
b0 /
b0 L
b11111000 >
b11111000 J
b1 +
b1 D
b11111110 #
b11111110 K
04
b11111000 $
1&
b100 2
b100 -
b100 ,
1'
b11 9
b11 B
b11 E
00
0)
01
b0 I
b110 ;
b10100 :
b1 H
1!
#670
0!
#675
b11101110 ?
b11110000 /
b11110000 L
b110 >
b110 J
b11101110 8
b11101110 C
1)
11
10
0'
b1 I
b11110110 <
b11110110 @
b0 H
b11110110 #
b11110110 K
1!
#680
0!
#685
b11101100 ?
b11101100 8
b11101100 C
13
b11110110 =
b11110110 A
b0 /
b0 L
b11110110 >
b11110110 J
b1111 +
b1111 D
b11110110 $
0&
b0 2
b0 -
b0 ,
0'
00
0)
01
b11 I
b111 ;
b11110000 :
b1 H
1!
#690
0!
#695
13
b11 H
1!
#700
0!
#705
b0 ?
15
b0 8
b0 C
b0 +
b0 D
b0 <
b0 @
b0 =
b0 A
b0 >
b0 J
1)
11
10
03
b1 I
b0 :
b0 ;
b0 #
b0 K
b0 $
b0 H
1"
1!
#710
0!
#715
1!
#717
0"
#720
0!
#725
b110 =
b110 A
b110 ?
b1 6
b1 G
05
b110 8
b110 C
b11 +
b11 D
1&
b110 2
b110 -
b110 ,
1'
b11 9
b11 B
b11 E
00
0)
01
b0 I
b1 ;
b110110 :
b1 H
1!
b110110 /
b110110 L
#730
0!
#735
b110 ?
b111010 /
b111010 L
b1 >
b1 J
b0 =
b0 A
b110 8
b110 C
1)
11
10
b0 6
b0 G
0'
b1 I
b110 <
b110 @
b0 H
b110 #
b110 K
1!
#740
0!
#745
b10 ?
b10 8
b10 C
b0 <
b0 @
b10 =
b10 A
b11110000 /
b11110000 L
b110 >
b110 J
b0 #
b0 K
14
b110 $
0&
b10 2
b11111010 -
b11111010 ,
1'
b1 6
b1 G
00
0)
01
b0 I
b10 ;
b111010 :
b1 H
1!
#750
0!
#755
b1000 ?
b111111 /
b111111 L
b10 >
b10 J
b110 =
b110 A
b1000 8
b1000 C
1)
11
10
b0 6
b0 G
0'
b1 I
b10 <
b10 @
b0 H
b10 #
b10 K
1!
#760
0!
#765
b1001 ?
b1001 8
b1001 C
b111 =
b111 A
b111111 /
b111111 L
b10 >
b10 J
b10 $
1&
b111 2
b11111111 -
b11111111 ,
1'
b1 6
b1 G
00
0)
01
b0 I
b11 ;
b111111 :
b1 H
1!
#770
0!
#775
b10010 ?
b1001 =
b1001 A
b10010 8
b10010 C
1)
11
10
b0 6
b0 G
0'
b1 I
b1001 <
b1001 @
b111001 /
b111001 L
b11 >
b11 J
b0 H
b1001 #
b1001 K
b1001 $
1!
#780
0!
#785
b1010 ?
b1010 8
b1010 C
b1 =
b1 A
b11110000 /
b11110000 L
b110 >
b110 J
b110 $
0&
b1 2
b11111001 -
b11111001 ,
1'
b1 6
b1 G
00
0)
01
b0 I
b100 ;
b111001 :
b1 H
1!
#790
0!
#795
b10000 ?
b1110100 /
b1110100 L
b100 >
b100 J
b110 =
b110 A
b10000 8
b10000 C
1)
11
10
b0 6
b0 G
0'
b1 I
b1010 <
b1010 @
b0 H
b1010 #
b1010 K
1!
#800
0!
#805
b10000 ?
b10000 8
b10000 C
1.
b110 <
b110 @
b1010 =
b1010 A
b0 /
b0 L
b1010 >
b1010 J
b111 +
b111 D
b110 #
b110 K
04
b1010 $
1&
b100 2
b100 -
b100 ,
0'
b0 6
b0 G
00
0)
01
b0 I
b101 ;
b1110100 :
b1 H
1!
#810
0!
#815
b101 >
b101 J
1)
11
10
0.
b1 I
b0 H
b1100100 /
b1100100 L
1!
#820
0!
#825
b110 ?
1%
1'
b110 /
b110 L
b1010 >
b1010 J
b110 +
b110 D
0.
00
0)
01
b0 I
b110 ;
b1100100 :
b1 H
1!
#830
0!
#835
b11110000 /
b11110000 L
b110 >
b110 J
b10000 ?
1)
11
10
0%
0'
b1 I
b0 H
1!
#840
0!
#845
b1100 8
b1100 C
13
b110 =
b110 A
b1100 ?
b11110000 /
b11110000 L
b110 >
b110 J
b1111 +
b1111 D
b110 $
0&
b0 2
b0 -
b0 ,
0%
0'
00
0)
01
b11 I
b111 ;
b11110000 :
b1 H
1!
#850
0!
#855
13
b11 H
1!
#860
0!
#865
b0 ?
15
b0 8
b0 C
b0 +
b0 D
b0 <
b0 @
b0 =
b0 A
b0 >
b0 J
1)
11
10
03
b1 I
b0 :
b0 ;
b0 #
b0 K
b0 $
b0 H
1"
b0 /
b0 L
1!
#870
0!
#875
1!
#877
0"
#880
0!
#885
b100 =
b100 A
b100 ?
b1 6
b1 G
05
b100 8
b100 C
b11 +
b11 D
1&
b100 2
b100 -
b100 ,
1'
b11 9
b11 B
b11 E
00
0)
01
b0 I
b1 ;
b110100 :
b1 H
1!
b110100 /
b110100 L
#890
0!
#895
b100 ?
b100000 /
b100000 L
b1 >
b1 J
b0 =
b0 A
b100 8
b100 C
1)
11
10
b0 6
b0 G
0'
b1 I
b100 <
b100 @
b0 H
b100 #
b100 K
1!
#900
0!
#905
b1000 ?
b1000 8
b1000 C
b100 =
b100 A
b10100 /
b10100 L
b100 >
b100 J
b10 +
b10 D
b100 $
0&
b0 2
b0 -
b0 ,
0'
b0 6
b0 G
00
0)
01
b10 I
b10 ;
b100000 :
b1 H
1!
#910
0!
#915
b11000 ?
b11000 8
b11000 C
b10100 =
b10100 A
1'
b10 6
b10 G
b0 I
b10 H
1!
#920
0!
#925
b110000 ?
b110000 8
b110000 C
b11000 <
b11000 @
b11000 =
b11000 A
b11110000 /
b11110000 L
b10 >
b10 J
1)
11
10
b0 6
b0 G
0'
b1 I
b11000 #
b11000 K
b11000 $
b0 H
1!
#930
0!
#935
13
00
0)
01
b11 I
b0 /
b0 L
b11000 >
b11000 J
b1111 +
b1111 D
b1 H
b11 ;
b11110000 :
1!
#940
0!
#945
13
b11 H
1!
#950
0!
#955
b0 ?
15
b0 8
b0 C
1)
11
10
03
b1 I
b0 <
b0 @
b0 =
b0 A
b0 +
b0 D
b0 >
b0 J
b0 H
b0 #
b0 K
b0 $
b0 :
b0 ;
1"
1!
#960
0!
#965
1!
#967
0"
#970
0!
#975
b111 ?
05
b111 8
b111 C
b111 =
b111 A
1'
b1 6
b1 G
00
0)
01
b0 I
b0 >
b0 J
b11 +
b11 D
1&
b111 2
b111 -
b111 ,
b1 H
b1 ;
b110111 :
1!
b110111 /
b110111 L
#980
0!
#985
b111 8
b111 C
b111111 /
b111111 L
b1 >
b1 J
b0 =
b0 A
b111 <
b111 @
1)
11
10
b0 6
b0 G
0'
b1 I
b111 #
b111 K
b0 H
1!
#990
0!
#995
b111 8
b111 C
b111 =
b111 A
b0 <
b0 @
1'
b1 6
b1 G
00
0)
01
b0 I
b110111 /
b110111 L
b0 >
b0 J
b0 #
b0 K
14
b11111111 -
b11111111 ,
b1 H
b10 ;
b111111 :
1!
#1000
0!
#1005
b1110 ?
b1110 8
b1110 C
b111 <
b111 @
b1010100 /
b1010100 L
b10 >
b10 J
1)
11
10
b0 6
b0 G
0'
b1 I
b111 #
b111 K
b111 $
b0 H
1!
#1010
0!
#1015
b110001 ?
b110001 8
b110001 C
1'
b1 9
b1 B
b1 E
00
0)
01
b0 I
b11110000 /
b11110000 L
b111 >
b111 J
b101 +
b101 D
04
b100 2
b100 -
b100 ,
b1 H
b11 ;
b1010100 :
1!
#1020
0!
#1025
b111000 ?
b10000 /
b10000 L
b11 >
b11 J
b111000 8
b111000 C
b110001 <
b110001 @
1)
11
10
b11 9
b11 B
b11 E
0'
b1 I
b110001 #
b110001 K
b0 H
1!
#1030
0!
#1035
b1100010 ?
b1100010 8
b1100010 C
b110001 =
b110001 A
1'
00
0)
01
b0 I
b0 /
b0 L
b110001 >
b110001 J
b1 +
b1 D
b110001 $
0&
b0 2
b0 -
b0 ,
b1 H
b100 ;
b10000 :
1!
#1040
0!
#1045
b11000100 ?
b11000100 8
b11000100 C
b1100010 <
b1100010 @
b1100010 =
b1100010 A
b10000 /
b10000 L
b100 >
b100 J
1)
11
10
0'
b1 I
b1100010 #
b1100010 K
b1100010 $
b0 H
1!
#1050
0!
#1055
1'
00
0)
01
b0 I
b0 /
b0 L
b1100010 >
b1100010 J
b1 H
b101 ;
1!
#1060
0!
#1065
b10001000 ?
b10001000 8
b10001000 C
b11000100 <
b11000100 @
b11000100 =
b11000100 A
b10000 /
b10000 L
b101 >
b101 J
1)
11
10
0'
b1 I
b11000100 #
b11000100 K
b11000100 $
b0 H
1!
#1070
0!
#1075
1'
00
0)
01
b0 I
b0 /
b0 L
b11000100 >
b11000100 J
b1 H
b110 ;
1!
#1080
0!
#1085
b10000 ?
b10000 8
b10000 C
b10001000 <
b10001000 @
b10001000 =
b10001000 A
b1000100 /
b1000100 L
b110 >
b110 J
1)
11
10
0'
b1 I
b10001000 #
b10001000 K
b10001000 $
b0 H
1!
#1090
0!
#1095
b10000001 ?
b10000001 8
b10000001 C
b111 =
b111 A
1'
b10 9
b10 B
b10 E
00
0)
01
b0 I
b11110000 /
b11110000 L
b111 >
b111 J
b100 +
b100 D
b111 $
1&
b100 2
b100 -
b100 ,
b1 H
b111 ;
b1000100 :
1!
#1100
0!
#1105
b10001000 ?
b11110000 /
b11110000 L
b111 >
b111 J
b10001000 8
b10001000 C
b10000001 <
b10000001 @
1)
11
10
b11 9
b11 B
b11 E
0'
b1 I
b10000001 #
b10000001 K
b0 H
1!
#1110
0!
#1115
b10 ?
b10 8
b10 C
b10000001 =
b10000001 A
13
00
0)
01
b11 I
b0 /
b0 L
b10000001 >
b10000001 J
b1111 +
b1111 D
b10000001 $
0&
b0 2
b0 -
b0 ,
b1 H
b1000 ;
b11110000 :
1!
#1120
0!
#1125
13
b11 H
1!
#1130
0!
#1135
b0 ?
15
b0 8
b0 C
1)
11
10
03
b1 I
b0 <
b0 @
b0 =
b0 A
b0 +
b0 D
b0 >
b0 J
b0 H
b0 #
b0 K
b0 $
b0 :
b0 ;
1"
1!
#1140
0!
#1145
1!
#1147
0"
#1150
0!
#1155
b11 ?
05
b11 8
b11 C
b11 =
b11 A
1'
b1 6
b1 G
00
0)
01
b0 I
b0 >
b0 J
b11 +
b11 D
b11 2
b11 -
b11 ,
b1 H
b1 ;
b110011 :
1!
b110011 /
b110011 L
#1160
0!
#1165
b110 ?
b110 8
b110 C
b11 <
b11 @
b111111 /
b111111 L
b1 >
b1 J
1)
11
10
b0 6
b0 G
0'
b1 I
b11 #
b11 K
b11 $
b0 H
1!
#1170
0!
#1175
b111 ?
b111 8
b111 C
b0 <
b0 @
b111 =
b111 A
1'
b1 6
b1 G
00
0)
01
b0 I
b110011 /
b110011 L
b0 >
b0 J
b0 #
b0 K
14
b0 $
1&
b111 2
b11111111 -
b11111111 ,
b1 H
b10 ;
b111111 :
1!
#1180
0!
#1185
b1110 ?
b1110 8
b1110 C
b111 <
b111 @
b11100 /
b11100 L
b10 >
b10 J
1)
11
10
b0 6
b0 G
0'
b1 I
b111 #
b111 K
b111 $
b0 H
1!
#1190
0!
#1195
1'
00
0)
01
b0 I
b111111 /
b111111 L
b111 >
b111 J
b1 +
b1 D
b100 2
b11111100 -
b11111100 ,
b1 H
b11 ;
b11100 :
1!
#1200
0!
#1205
b11100 ?
b11100 8
b11100 C
b1110 <
b1110 @
b1110 =
b1110 A
b11100 /
b11100 L
b11 >
b11 J
1)
11
10
0'
b1 I
b1110 #
b1110 K
b1110 $
b0 H
1!
#1210
0!
#1215
1'
00
0)
01
b0 I
b11110000 /
b11110000 L
b1110 >
b1110 J
b1 H
b100 ;
1!
#1220
0!
#1225
b111000 ?
b111000 8
b111000 C
b11100 <
b11100 @
b11100 =
b11100 A
b11100 /
b11100 L
b100 >
b100 J
1)
11
10
0'
b1 I
b11100 #
b11100 K
b11100 $
b0 H
1!
#1230
0!
#1235
1'
00
0)
01
b0 I
b0 /
b0 L
b11100 >
b11100 J
b1 H
b101 ;
1!
#1240
0!
#1245
b1110000 ?
b1110000 8
b1110000 C
b111000 <
b111000 @
b111000 =
b111000 A
b11100 /
b11100 L
b101 >
b101 J
1)
11
10
0'
b1 I
b111000 #
b111000 K
b111000 $
b0 H
1!
#1250
0!
#1255
1'
00
0)
01
b0 I
b0 /
b0 L
b111000 >
b111000 J
b1 H
b110 ;
1!
#1260
0!
